<?xml version="1.0" encoding="UTF-8" standalone="no"?>
<!DOCTYPE svg PUBLIC "-//W3C//DTD SVG 1.1//EN" "http://www.w3.org/Graphics/SVG/1.1/DTD/svg11.dtd">
<svg width="100%" height="100%" viewBox="0 0 1185 226" version="1.1" xmlns="http://www.w3.org/2000/svg" xmlns:xlink="http://www.w3.org/1999/xlink" xml:space="preserve" xmlns:serif="http://www.serif.com/" style="fill-rule:evenodd;clip-rule:evenodd;stroke-linejoin:round;stroke-miterlimit:2;">
    <g id="Artboard1" transform="matrix(2.26778,0,0,0.643156,10.5323,1.14453)">
        <rect x="-4.644" y="-1.78" width="522.426" height="350.715" style="fill:none;"/>
        <g id="text" transform="matrix(0.815659,0,0,2.87603,-155.7,-1350.34)">
            <g id="g3536" transform="matrix(7.43322,0,0,-7.43322,599.09,491.927)">
                <path id="path3538" d="M0,0L-11.287,0L-11.287,-2.51L-5.835,-2.51L-11.479,-7.779L-11.479,-9.882L-0.021,-9.882L-0.021,-7.362L-5.722,-7.362L0,-2.106L0,0Z" style="fill:rgb(0,51,153);fill-rule:nonzero;"/>
            </g>
            <g id="g3540" transform="matrix(7.43322,0,0,-7.43322,465.793,567.261)">
                <path id="path3542" d="M0,0C4.514,0 5.67,1.153 5.67,3.695L5.67,10.135L2.094,10.135L2.094,4.08C2.094,3.063 1.224,2.457 0,2.457C-1.273,2.457 -2.092,3.066 -2.092,4.096L-2.092,10.135L-5.668,10.135L-5.668,3.695C-5.668,1.153 -4.512,0 0,0" style="fill:rgb(0,51,153);fill-rule:nonzero;"/>
            </g>
            <g id="g3544" transform="matrix(7.43322,0,0,-7.43322,647.798,567.261)">
                <path id="path3546" d="M0,0C4.514,0 5.67,1.153 5.67,3.695L5.67,10.135L2.093,10.135L2.093,4.08C2.093,3.063 1.222,2.457 0,2.457C-1.273,2.457 -2.095,3.066 -2.095,4.096L-2.095,10.135L-5.67,10.135L-5.67,3.695C-5.67,1.153 -4.514,0 0,0" style="fill:rgb(0,51,153);fill-rule:nonzero;"/>
            </g>
            <rect id="path3548" x="794.922" y="491.927" width="27.718" height="73.455" style="fill:rgb(0,51,153);fill-rule:nonzero;"/>
            <g id="g3550" transform="matrix(7.43322,0,0,-7.43322,790.699,491.927)">
                <path id="path3552" d="M0,0L-4.906,0L-8.876,-3.41L-8.876,0L-12.606,0L-12.606,-9.882L-8.876,-9.882L-8.876,-6.377L-5.189,-9.882L-0.179,-9.882L-5.632,-4.812L0,0Z" style="fill:rgb(0,51,153);fill-rule:nonzero;"/>
            </g>
            <g id="g3554" transform="matrix(7.43322,0,0,-7.43322,358.143,512.223)">
                <path id="path3556" d="M0,0C0,0.764 1.132,0.789 1.514,0.789C1.897,0.789 2.76,0.636 3.347,-0.327L7.564,-0.327C7.564,1.535 5.799,3.016 1.527,3.016C-3.218,3.016 -4.026,0.934 -4.026,-0.262C-4.026,-2.467 -2.318,-3.113 1.396,-3.509C1.714,-3.542 3.646,-3.451 3.646,-4.38C3.646,-5.068 2.56,-5.114 2.16,-5.114C1.763,-5.114 1.02,-5.049 0.406,-3.956L-4.238,-3.956C-4.238,-6.126 -2.775,-7.38 2.153,-7.38C6.692,-7.38 7.897,-5.527 7.897,-4.118C7.897,-2.75 6.958,-1.358 3.088,-0.863C1.474,-0.654 0,-0.566 0,0" style="fill:rgb(0,51,153);fill-rule:nonzero;"/>
            </g>
        </g>
        <g id="logo" transform="matrix(3.27775,0,0,-11.5574,93.742,240.844)">
            <path id="path3534" d="M0,0C0,0 -2.772,-0.801 -8.134,-4.096C-12.941,-7.055 -14.826,-9.043 -14.826,-9.043L-29.656,1.206C-29.656,1.206 -23.417,5.794 -18.204,2.28L-11.211,-2.517L-10.358,-1.956L-29.653,11.562C-29.653,11.562 -26.88,12.364 -21.521,15.657C-16.711,18.617 -14.826,20.606 -14.826,20.606L0.003,10.357C0.003,10.357 -6.235,5.769 -11.449,9.283L-18.442,14.081L-19.295,13.521L0,0Z" style="fill:rgb(226,10,23);fill-rule:nonzero;"/>
        </g>
    </g>
</svg>
