<svg xmlns="http://www.w3.org/2000/svg" viewBox="0 0 1367.28 2340.81">
    <defs>
        <style>
            .cls-1{fill:#e4f4f0;}.cls-2{opacity:0.4;}.cls-3{fill:#313b47;}.cls-4{fill:#96a9d1;}.cls-5{fill:#c9c3c3;}.cls-6{fill:#e0d8d8;}.cls-7{fill:#9bd2ca;}.cls-8{fill:#ffe4b8;}.cls-9{fill:#de887d;}
        </style>
    </defs>
    <g id="Layer_2" data-name="Layer 2">
        <g id="Layer_1-2" data-name="Layer 1">
            <polygon class="cls-1" points="1367.28 2340.81 1.43 2340.81 1.43 331.86 1367.28 191.8 1367.28 2340.81"/>
            <path class="cls-1"
                  d="M0,278.42,1.05,493l1366.23-245.9L1367,72.46,1195.64,0,864.1,133.89,682,63.41S344.08,190,341.46,189.82s-161.61-61.33-161.61-61.33Z"/>
            <g class="cls-2">
                <polygon class="cls-3"
                         points="998.65 1548.59 1147.47 1603.28 1148.36 1452.17 996.88 1397.53 998.65 1548.59"/>
                <polygon class="cls-4"
                         points="1296.78 1548.63 1147.47 1603.25 1147.47 1452.21 1296.78 1397.88 1296.78 1548.63"/>
                <path class="cls-5"
                      d="M1147.47,1397.32v-54.43l-75.1,27-76.17,27.37a.08.08,0,0,0,0,.15l76.17,27.37,75.1,27.45Z"/>
                <polygon class="cls-6"
                         points="1147.47 1397.76 1147.47 1452.21 1222.13 1424.98 1296.78 1397.88 1222.13 1370.53 1147.47 1342.89 1147.47 1397.76"/>
            </g>
            <g class="cls-2">
                <polygon class="cls-7" points="685.45 1210.1 1024.85 1334.8 1026.87 990.19 681.4 865.59 685.45 1210.1"/>
                <polygon class="cls-3"
                         points="340.91 1084.26 685.45 1210.33 681.4 864.38 340.91 739.91 340.91 1084.26"/>
                <polygon class="cls-8" points="340.91 1084.26 0.42 1209.39 0.42 864.38 340.91 739.91 340.91 1084.26"/>
                <polygon class="cls-4"
                         points="1365.34 1210.17 1024.85 1334.75 1024.85 990.29 1365.34 866.39 1365.34 1210.17"/>
                <path class="cls-5"
                      d="M1024.85,865.1V741L853.56,802.51,679.87,864.93a.18.18,0,0,0,0,.35L853.56,927.7l171.29,62.59Z"/>
                <polygon class="cls-5"
                         points="0.42 739.91 0.42 615.73 170.66 677.82 340.91 739.91 170.66 802 0.42 864.38 0.42 739.91"/>
                <polygon class="cls-6"
                         points="1024.85 866.11 1024.85 990.29 1195.09 928.2 1365.34 866.39 1195.09 804.01 1024.85 740.98 1024.85 866.11"/>
                <polygon class="cls-6"
                         points="681.4 741.92 681.4 865.83 853.42 804.01 1024.85 740.98 853.42 679.83 681.4 617.74 681.4 741.92"/>
                <polygon class="cls-4"
                         points="681.4 741.92 681.4 865.83 508.67 804.01 340.91 739.91 508.67 679.83 681.4 617.74 681.4 741.92"/>
            </g>
            <g class="cls-2">
                <polygon class="cls-9" points="0.74 2120.23 504.38 2305.01 504.38 1796.72 0.74 1613.34 0.74 2120.23"/>
                <polygon class="cls-8"
                         points="1007.48 2122.84 504.22 2305.01 504.22 1796.9 1008.64 1612.5 1007.48 2122.84"/>
                <polygon class="cls-5"
                         points="504.22 1613.48 504.22 1429.51 757.96 1521.5 1008.64 1612.5 757.96 1705.47 504.22 1797.46 504.22 1613.48"/>
                <polygon class="cls-6"
                         points="504.77 1613.48 504.77 1429.51 251.03 1521.5 0.35 1612.5 251.03 1705.47 504.77 1797.46 504.77 1613.48"/>
            </g>
        </g>
    </g>
</svg>
